0;1;0;1;1;1;		00:30;	01-01-2017
10;1;0;16;10;2;		01:20;	01-01-2017
0;10;0;16;1;3;		01:30;	01-01-2017
10;1;1;16;11;1;		02:00;	01-01-2017
0;1;1;16;11;1;		02:30;	01-01-2017
10;1;1;16;11;2;		03:00;	01-01-2017
5;10;1;16;11;3;		03:30;	01-01-2017
15;1;10;16;11;4;	04:00;	01-01-2017
5;1;1;16;11;14;		04:30;	01-01-2017
15;10;2;7;11;1;		05:00;	01-01-2017
5;1;3;8;1;1;		05:30;	01-01-2017
15;1;4;9;1;1;		06:00;	01-01-2017
17;1;4;9;1;1;		06:00;	01-01-2017
5;1;5;16;0;1;		06:30;	01-01-2017
5;1;0;16;1;2;		07:00;	01-01-2017
5;10;0;16;1;3;		07:30;	01-01-2017
5;1;1;16;1;1;		08:00;	01-01-2017
5;1;1;16;1;1;		08:30;	01-01-2017
5;1;1;16;20;2;		09:00;	01-01-2017
5;10;1;16;18;3;		09:30;	01-01-2017
5;1;10;16;17;4;		10:00;	01-01-2017
5;1;1;16;16;14;		10:30;	01-01-2017
5;10;2;7;13;1;		11:00;	01-01-2017
5;1;3;8;13;13;		11:30;	01-01-2017
5;1;5;9;13;13;		12:00;	01-01-2017
5;1;5;16;13;1;		23:29;	01-01-2017
5;1;5;16;13;1;		23:30;	01-01-2017
5;1;5;16;13;1;		23:31;	01-01-2017
5;1;5;16;13;1;		00:00;	01-01-2017
5;1;5;16;13;1;		00:30;	02-01-2017
13;1;6;16;1;1;		13:10;	03-02-2017
13;1;16;1;1;1;		13:10;	03-02-2017
0;1;0;1;1;1;		00:30;	04-03-2017
10;1;0;16;10;2;		01:20;	04-03-2017
0;10;0;16;1;3;		01:30;	04-03-2017
10;1;1;16;11;1;		02:00;	04-03-2017
0;1;1;16;11;1;		02:30;	04-03-2017
10;1;1;16;11;2;		03:00;	04-03-2017
5;10;1;16;11;3;		03:30;	04-03-2017
15;1;10;16;11;4;	04:00;	04-03-2017
5;1;1;16;11;14;		04:30;	04-03-2017
15;10;2;7;11;1;		05:00;	04-03-2017
5;1;3;8;1;1;		05:30;	04-03-2017
15;1;4;9;1;1;		06:00;	04-03-2017
5;1;5;16;0;1;		06:30;	04-03-2017
5;1;0;16;1;2;		07:00;	04-03-2017
5;10;0;16;1;3;		07:30;	04-03-2017
5;1;1;16;1;1;		08:00;	04-03-2017
5;1;1;16;1;1;		08:30;	04-03-2017
5;1;1;16;20;2;		09:00;	04-03-2017
5;10;1;16;18;3;		09:30;	04-03-2017
5;1;10;16;17;4;		10:00;	04-03-2017
5;1;1;16;16;14;		10:30;	04-03-2017
5;10;2;7;13;1;		11:00;	04-03-2017
5;1;3;8;13;13;		11:30;	04-03-2017
5;1;5;9;13;13;		12:00;	04-03-2017